{
    "app_port": 3000,
    "secret": "3428ghne8wngbehvj458543",
    "expiresIn": "3600s",
    "mongodb":{
        "uri":"mongodb://localhost:27017/Projeto",
        "db_name": "Projeto"
    },
    "debug": {
        "mongoose":false,
        "log":true,
        "request_log":true
    }
}